{
    "update_id": 497424211,
    "message": {
        "message_id": 11,
        "from": {
            "id": 563970555,
            "is_bot": false,
            "first_name": "Anton",
            "last_name": "Petrov",
            "language_code": "ru"
        },
        "chat": {
            "id": 563970555,
            "first_name": "Anton",
            "last_name": "Petrov",
            "type": "private"
        },
        "date": 1521729315,
        "text": "/start"
    }
}
