{
   "update_id" : 497424203,
   "callback_query" : {
      "data": "0",
      "from" : {
         "last_name" : "Petrov",
         "is_bot" : false,
         "language_code" : "ru",
         "first_name" : "Anton",
         "id" : 563970555
      },
      "message" : {
         "chat" : {
            "last_name" : "Petrov",
            "id" : 563970555,
            "type" : "private",
            "first_name" : "Anton"
         },
         "edit_date" : 1521578106,
         "from" : {
            "username" : "SimpCalcBot",
            "is_bot" : true,
            "id" : 569598500,
            "first_name" : "SimpCalc"
         },
         "text" : "1+2-",
         "date" : 1521562730,
         "message_id" : 9
      },
      "id" : "2422235091095083762",
      "chat_instance" : "3116460648189164798"
   }
}
